﻿ASYLUM POWER
SSA POWERLIFTING MEET
OCTOBER 16, 2010  -  IRON ASYLUM GYM – TRIBES HILL, NY

STANDARD
FULL POWER	SQUAT	BENCH	DEADLIFT	TOTAL
WOM 165 OPEN
BROOKE MICKELSON	230	155	265	650
MEN
165 OPEN
ANDREW HUDSON	350	185	375	910
181 OPEN
JUSTIN KAYE	375	275	425	1075
RAYMOND LEW	305	190	400	895
198 OPEN
WAYNE McMAHON	485	335	585	1405
198 JUNIOR
ALEX HAMILTON	265	200	315	780
198 MASTER 40-44
ORIN ALBERT DOUGLAS	500	270	525 (550 4TH )	1295
220 OPEN
LARRY PERNA	465	335	585	1385
WILL SONG	410	250	450	1110
220 TEEN 18-19
ADAM CARTER	485	340	550	1375
275 OPEN
BEN SCHWEITZER	550	370	580	1500
275 OPEN
VINCENT RAGAINI	480	335	535	1350
308 OPEN
MIKE TILLITSON	575	350	550	1475
MICHAEL ABBRUZESE	400	370	XXX	XXX
308 JUNIOR
KEENAN HOLLINGSWORTH	565	250	575	1390
308+ OPEN
RYAN MARRA	500	530	600	1630
ANDREW PATRIZZI	535	XXX	XXX	XXX

IRONMAN
198 SUBMASTER
LEE LeBLANC		365	525	890
220 TEEN 18-19
MATT WEBER		300	540	840

SINGLE LIFTS
WOM 132 OPEN BENCH
SARAH FEENEY		145
220 OPEN BENCH
ADAM SZEPS		450
220 JUNIOR BENCH
ANDREW ROWBACK		305
308 TEEN 18-19 BENCH
ANTHONY DINIGRO		180
308+ TEEN 18-19 BENCH
JAMES KRESA		225
308+ MASTERS 55-59 BENCH
FRANK KRESA		220
308+ OPEN DEADLIFT
CHRIS LENDEMUTH			650



SINGLE PLY
FULL POWER
WOM 198+ MASTERS 50-54
LAURIE ELLIS	250	120	260	630
165 TEEN 18-19
JAKE GOLDBLUM	425	XXX	XXX	XXX
242 OPEN
JEREMY ROWBACK	510	400	XXX	XXX

SINGLE LIFTS
WOM 148 OPEN BENCH
RHETA WEST		XXX	
165 OPEN BENCH
DIEGO SALAFA		555





UNLIMITED
FULL POWER
WOM 165 OPEN
BROOKE FINEIS	575 (600-4TH)	340	450	1365
WOM 165 SUBMASTER
BROOKE FINEIS	575 (600-4TH)	340	450	1365
198 SUBMASTER
SHAWN POLLOCK	745	460	560	1765
220 OPEN
NICK PUORRO	725	530	570	1825
PAUL MILLER	555	535	615	1705
220 MASTERS 40-44	
SEAN HAILEY	740	525	510	1775
242 OPEN
TIM GALE	815	675	625	2115
242 MASTERS 50-54
BILL SCHIMEL	610	440	550	1600
275 OPEN	
MIKE STUCHINER	760	540	605	1905

IRONMAN
220 OPEN
KRIS HERBERT		725	530	1255
308 OPEN
JAKE BASHER		500	710	1210

SINGLE LIFTS
WOM 132 OPEN BENCH
JANET FARAONE		340
181 OPEN BENCH
RUDY HILLYARD		390
242 OPEN
DAN McPHEARSON		XXX
242 SUBMASTER
MIKE FERLITO		XXX

	







