Place,Name,State,WeightClassKg,BodyweightKg,Age,Best3SquatKg,Best3BenchKg,Best3DeadliftKg,TotalKg,Sex,Division,Equipment,Deadlift4Kg,Bench4Kg,Event
1,Alyssa Sullivan,AZ,60,59.30,20,92.50,47.50,127.50,267.50,F,Open,Raw,,,SBD
1,Jean-Ann Burgland,AZ,67.5,64.10,53,137.50,83.00,155.00,375.50,F,Open,Raw,-160,,SBD
2,Shelby Iezzi,AZ,67.5,62.80,24,102.50,67.50,115.00,285.00,F,Open,Raw,,,SBD
1,Alycia Cartwright,AZ,82.5,82.50,31,80.00,55.00,132.50,267.50,F,Open,Raw,,,SBD
1,Lisa Pain,AZ,52,49.40,46,107.50,65.00,125.00,297.50,F,Masters 45-49,Raw,,,SBD
1,Jean-Ann Burgland,AZ,67.5,64.10,53,137.50,83.00,155.00,375.50,F,Masters 50-54,Raw,-160,,SBD
1,Rachel Tineo,AZ,75,72.20,45,87.50,62.50,130.00,280.00,F,Masters 45-49,Raw,,,SBD
1,Jared Mishlove,AZ,67.5,63.20,19,150.00,102.50,175.00,427.50,M,Juniors 18-19,Raw,,,SBD
1,Charles Pierce,AZ,90,87.40,22,222.50,140.00,275.00,637.50,M,Juniors 20-23,Raw,,,SBD
1,James Johnson,AZ,100,99.20,22,202.50,130.00,275.00,607.50,M,Juniors 20-23,Raw,,,SBD
1,Jared Mishlove,AZ,67.5,63.20,19,150.00,102.50,175.00,427.50,M,Open,Raw,,,SBD
1,Julian Hatlevig,AZ,75,73.50,18,125.00,72.50,152.50,350.00,M,Open,Raw,,,SBD
1,Yegor Makhibaroda,AZ,82.5,76.80,31,145.00,115.00,227.50,487.50,M,Open,Raw,,,SBD
2,Shawn Watts,AZ,82.5,78.00,20,172.50,117.50,195.00,485.00,M,Open,Raw,,,SBD
1,Vincent Clarin,AZ,90,88.00,25,237.50,137.50,270.00,645.00,M,Open,Raw,,,SBD
2,Charles Pierce,AZ,90,87.40,22,222.50,140.00,275.00,637.50,M,Open,Raw,,,SBD
3,Thomas Sheets,AZ,90,84.60,24,207.50,142.50,227.50,577.50,M,Open,Raw,,,SBD
1,Samuel Toggle,AZ,100,96.30,30,197.50,205.00,270.00,672.50,M,Open,Raw,,,SBD
2,Fransisco Rodriguez,AZ,100,92.50,26,227.50,137.50,232.50,597.50,M,Open,Raw,,,SBD
DQ,Jarod Fletcraft,AZ,100,94.00,17,-210.00,120.00,-172.50,,M,Open,Raw,,,SBD
1,Troy Shanks,AZ,125,112.70,28,245.00,180.00,280.00,705.00,M,Open,Raw,,,SBD
2,Reyes Dorame,AZ,125,121.90,29,227.50,160.00,240.00,627.50,M,Open,Raw,,,SBD
1,David Collins,AZ,140,139.20,28,275.00,177.50,290.00,742.50,M,Open,Raw,,,SBD
2,Jose Islas,AZ,140,138.30,25,227.50,170.00,285.00,682.50,M,Open,Raw,,,SBD
1,Marcos Rodriguez,AZ,125,116.90,36,227.50,157.50,255.00,640.00,M,Submasters 35-39,Raw,,,SBD
1,Bernie Medina,AZ,82.5,80.80,41,137.50,97.50,185.00,420.00,M,Masters 40-44,Raw,,,SBD
1,Steve Cota,AZ,100,91.90,40,202.50,170.00,220.00,592.50,M,Masters 40-44,Raw,,,SBD
1,Kim Kreider,AZ,52,49.00,52,105.00,67.50,110.00,282.50,F,Open,Wraps,,,SBD
1,Bethany Kashian,AZ,60,59.20,27,85.00,35.00,90.00,210.00,F,Open,Wraps,,,SBD
DQ,Josh Sanderson,AZ,125,122.40,23,-295.00,185.00,272.50,,M,Juniors 20-23,Wraps,,,SBD
1,Jeremiah Lai,AZ,82.5,80.20,36,187.50,137.50,205.00,530.00,M,Open,Wraps,,,SBD
1,John Pena,AZ,90,90.00,43,272.50,160.00,257.50,690.00,M,Open,Wraps,,,SBD
2,Scotty Hatlevig,AZ,90,87.10,42,235.00,170.00,265.00,670.00,M,Open,Wraps,,,SBD
DQ,Gregory Satcher,AZ,90,86.80,28,-212.50,130.00,265.00,,M,Open,Wraps,,,SBD
1,Tom Sharp,AZ,100,98.70,24,242.50,175.00,257.50,675.00,M,Open,Wraps,,,SBD
2,Joel Garcia,AZ,100,98.90,26,232.20,140.00,250.00,622.20,M,Open,Wraps,,,SBD
1,Justin Bennett,AZ,110,108.30,25,215.00,192.50,287.50,695.00,M,Open,Wraps,,,SBD
1,Julius Visser,AZ,125,125.00,26,265.00,212.50,282.50,760.00,M,Open,Wraps,,-217.5,SBD
DQ,Josh Sanderson,AZ,125,122.40,23,-295.00,185.00,272.50,,M,Open,Wraps,,,SBD
1,Scott Harris,AZ,140,135.00,27,160.00,100.00,197.50,457.50,M,Open,Wraps,,,SBD
1,William Lamond,AZ,75,73.00,36,182.50,122.50,220.00,525.00,M,Submasters 35-39,Wraps,,,SBD
1,Nahe Samberg,AZ,125,115.50,36,182.50,137.50,227.50,547.50,M,Submasters 35-39,Wraps,,,SBD
1,Andres Franco-Gomez,AZ,140,127.20,37,237.50,135.00,227.50,600.00,M,Submasters 35-39,Wraps,,,SBD
1,John Pena,AZ,90,90.00,43,272.50,160.00,257.50,690.00,M,Masters 40-44,Wraps,,,SBD
2,Scotty Hatlevig,AZ,90,87.10,42,235.00,170.00,265.00,670.00,M,Masters 40-44,Wraps,,,SBD
1,Gary Panttila Sr,AZ,100,90.70,61,107.50,55.00,160.00,322.50,M,Masters 60-64,Wraps,,,SBD
1,Isaac Boling,AZ,110,104.50,28,307.50,227.50,295.00,830.00,M,Open,Single-ply,,,SBD
1,Peter Jezyk,AZ,82.5,75.20,76,115.00,47.50,147.50,310.00,M,Masters 75-79,Single-ply,,,SBD
1,Amber Stazenski,AZ,56,55.60,26,,37.50,,37.50,F,Open,Raw,,,B
1,Oliver Chenault,AZ,75,70.60,33,,135.00,,135.00,M,Open,Raw,,,B
1,Troy Shanks,AZ,125,112.70,28,,180.00,,180.00,M,Open,Raw,,,B
1,Ed Regua,AZ,82.5,81.00,64,,127.50,,127.50,M,Masters 60-64,Raw,,,B
1,Gary Panttila Sr,AZ,100,90.70,61,,55.00,,55.00,M,Masters 60-64,Raw,,,B
1,Amber Stazenski,AZ,56,55.60,26,,,97.50,97.50,F,Open,Raw,,,D
1,Oliver Chenault,AZ,75,70.60,33,,,210.00,210.00,M,Open,Raw,,,D
1,David Zvareck,AZ,100,99.00,31,,,272.50,272.50,M,Open,Raw,,,D
1,Troy Shanks,AZ,125,112.70,28,,,280.00,280.00,M,Open,Raw,,,D
1,Ed Regua,AZ,82.5,81.00,64,,,160.00,160.00,M,Masters 60-64,Raw,,,D
1,Gary Panttila Sr,AZ,100,90.70,61,,,160.00,160.00,M,Masters 60-64,Raw,,,D
