Division,WeightClassKg,Place,Name,Team,BodyweightKg,Best3SquatKg,Best3BenchKg,Best3DeadliftKg,TotalKg,Equipment,Event,Sex
Boys,52,1,Adrian Flores,San Antonio Holy Cross,51.71,142.88,72.57,142.88,358.34,Single-ply,SBD,M
Boys,52,2,Ricky Moreno,San Antonio Holy Cross,51.44,79.38,40.82,122.47,242.67,Single-ply,SBD,M
Boys,52,3,Edward Fonseca,San Antonio Memorial,48.17,70.31,43.09,95.25,208.65,Single-ply,SBD,M
Boys,52,DQ,George Garcia,San Antonio Memorial,50.12,,,,,Single-ply,SBD,M
Boys,52,DQ,Rudy Sanchez,Somerset,48.99,,,,,Single-ply,SBD,M
Boys,56,1,Michael Mitchell,San Antonio Southside,53.98,181.44,92.99,199.58,474,Single-ply,SBD,M
Boys,56,2,Joey Garcia,Marion,55.7,136.08,83.91,174.63,394.63,Single-ply,SBD,M
Boys,56,3,Eli Luna,Somerset,55.16,136.08,72.57,136.08,344.73,Single-ply,SBD,M
Boys,56,4,Fabian Apaez,Somerset,54.52,104.33,65.77,111.13,281.23,Single-ply,SBD,M
Boys,60,1,Tyrese Martinez,Stockdale,59.15,172.37,99.79,197.31,469.47,Single-ply,SBD,M
Boys,60,2,Roman Ornelaz,San Antonio Holy Cross,59.78,161.03,97.52,192.78,451.32,Single-ply,SBD,M
Boys,60,3,Matthew Gauthier,Marion,59.28,149.69,97.52,199.58,446.79,Single-ply,SBD,M
Boys,60,4,Danny Morales,Karnes City,59.33,167.83,83.91,149.69,401.43,Single-ply,SBD,M
Boys,60,5,Isaiah Riojas,San Antonio Southwest,59.83,136.08,81.65,149.69,367.41,Single-ply,SBD,M
Boys,60,DQ,Julian Rico,Somerset,59.1,,,,,Single-ply,SBD,M
Boys,67.5,1,Jeremiah Lewis,San Antonio East Central,67.09,183.7,113.4,204.12,501.22,Single-ply,SBD,M
Boys,67.5,2,Justin Perez,San Antonio Holy Cross,66.36,183.7,92.99,210.92,487.61,Single-ply,SBD,M
Boys,67.5,3,Dominick Espinoza,Center Point,66.22,183.7,92.99,183.7,460.4,Single-ply,SBD,M
Boys,67.5,4,Marco Burkman-Flaig,San Antonio Cole,64.82,158.76,79.38,158.76,396.89,Single-ply,SBD,M
Boys,67.5,5,Antonio Garcia,Somerset,61.82,102.06,83.91,170.1,356.07,Single-ply,SBD,M
Boys,67.5,6,Hunter Young,Marion,62.91,117.93,63.5,149.69,331.12,Single-ply,SBD,M
Boys,67.5,DQ,Alberto Rodriguez,San Antonio Southwest,66.59,188.24,,,,Single-ply,SBD,M
Boys,75,1,Richard Villarreal,San Antonio East Central,72.21,217.72,111.13,242.67,571.53,Single-ply,SBD,M
Boys,75,2,Luke Janosky,Castroville Medina Valley,71.53,219.99,124.74,219.99,564.72,Single-ply,SBD,M
Boys,75,3,Roy DeLeon,Somerset,72.89,210.92,129.27,210.92,551.11,Single-ply,SBD,M
Boys,75,4,Marcus Almeida,Stockdale,74.34,195.04,131.54,192.78,519.36,Single-ply,SBD,M
Boys,75,5,Kaden Crouch,Stockdale,73.39,190.51,124.74,199.58,514.83,Single-ply,SBD,M
Boys,75,6,Juan Flores,Rocksprings,71.44,192.78,102.06,210.92,505.76,Single-ply,SBD,M
Boys,75,7,Casar Gonzalez,Somerset,70.53,206.38,92.99,201.85,501.22,Single-ply,SBD,M
Boys,75,8,Edher Nava,Marion,73.89,188.24,108.86,204.12,501.22,Single-ply,SBD,M
Boys,75,9,Leif Griffin,San Antonio Southwest,74.48,199.58,111.13,167.83,478.54,Single-ply,SBD,M
Boys,75,10,Tyrell Dunlap,San Antonio Cole,74.8,172.37,108.86,185.97,467.2,Single-ply,SBD,M
Boys,75,11,Isaiah Enriquez,Karnes City,72.48,181.44,92.99,176.9,451.32,Single-ply,SBD,M
Boys,75,12,Simon Sotiropoulos,Somerset,71.44,170.1,95.25,170.1,435.45,Single-ply,SBD,M
Boys,75,13,Steven Canales,San Antonio East Central,67.18,136.08,104.33,163.29,403.7,Single-ply,SBD,M
Boys,75,14,Dunn Morrow,Bandera,67.22,127.01,90.72,151.95,369.68,Single-ply,SBD,M
Boys,75,15,Isaiah Foreman,San Antonio Southside,74.25,151.95,92.99,124.74,369.68,Single-ply,SBD,M
Boys,75,16,Isaiah LaDuron,San Antonio Cole,69.08,127.01,65.77,140.61,333.39,Single-ply,SBD,M
Boys,75,DQ,Johnny Salinas,San Antonio Memorial,72.94,179.17,108.86,,,Single-ply,SBD,M
Boys,82.5,1,Robert Adame,San Antonio Holy Cross,79.29,249.48,165.56,242.67,657.71,Single-ply,SBD,M
Boys,82.5,2,Adrian Sustaita,Castroville Medina Valley,82.01,247.21,136.08,242.67,625.96,Single-ply,SBD,M
Boys,82.5,3,Dylan Delgado,Somerset,81.74,199.58,129.27,231.33,560.19,Single-ply,SBD,M
Boys,82.5,4,Marcus Ortega,Northside Brennan,78.43,226.8,108.86,222.26,557.92,Single-ply,SBD,M
Boys,82.5,5,Steban Mireles,Castroville Medina Valley,79.97,219.99,127.01,204.12,551.11,Single-ply,SBD,M
Boys,82.5,6,Andrew Garza,Castroville Medina Valley,76.43,226.8,115.67,206.38,548.85,Single-ply,SBD,M
Boys,82.5,7,Zach Whitley,Castroville Medina Valley,81.69,204.12,120.2,204.12,528.44,Single-ply,SBD,M
Boys,82.5,8,Brent Gisler,Karnes City,77.52,199.58,127.01,183.7,510.29,Single-ply,SBD,M
Boys,82.5,9,Michael Gonzalez,Somerset,75.75,156.49,113.4,161.03,430.91,Single-ply,SBD,M
Boys,82.5,10,Diego Lomeli,San Antonio Southwest,80.29,158.76,99.79,154.22,412.77,Single-ply,SBD,M
Boys,82.5,11,Noah Escamilla,Somerset,78.52,151.95,83.91,142.88,378.75,Single-ply,SBD,M
Boys,82.5,DQ,Matt Moore,San Antonio Cole,78.38,158.76,90.72,,,Single-ply,SBD,M
Boys,82.5,DQ,Sebastian Segura,Karnes City,81.87,,,,,Single-ply,SBD,M
Boys,90,1,Luis Guzman,San Antonio Southside,88.63,256.28,147.42,224.53,628.23,Single-ply,SBD,M
Boys,90,2,Ethan Chapa,Center Point,88.77,210.92,124.74,204.12,539.77,Single-ply,SBD,M
Boys,90,3,Patrick Rhodes,San Antonio Cole,89.81,201.85,136.08,195.04,532.97,Single-ply,SBD,M
Boys,90,4,Jacob Vargas,San Antonio Southwest,87.72,201.85,117.93,195.04,514.83,Single-ply,SBD,M
Boys,90,5,Tony Turrubiartes,Karnes City,89.54,195.04,115.67,190.51,501.22,Single-ply,SBD,M
Boys,90,6,Tucker Walters,Marion,84.1,174.63,102.06,204.12,480.81,Single-ply,SBD,M
Boys,90,7,Lino Tripp,San Antonio Cole,88.18,183.7,102.06,167.83,453.59,Single-ply,SBD,M
Boys,90,8,Elias Cruz,Bandera,88.36,149.69,97.52,142.88,390.09,Single-ply,SBD,M
Boys,90,DQ,Merbin Carritini,San Antonio Cole,87.36,149.69,90.72,,,Single-ply,SBD,M
Boys,100,1,Raymond Casarez,San Antonio Holy Cross,95.39,292.57,163.29,251.74,707.6,Single-ply,SBD,M
Boys,100,2,Mateo Garica,San Antonio Memorial,98.93,276.69,131.54,231.33,639.57,Single-ply,SBD,M
Boys,100,3,Joseph Bueno,Somerset,94.71,256.28,117.93,242.67,616.89,Single-ply,SBD,M
Boys,100,4,Isaac Oviedo,San Antonio Southside,92.58,226.8,142.88,226.8,596.47,Single-ply,SBD,M
Boys,100,5,Phillip Herrera,San Antonio Southwest,95.03,226.8,136.08,217.72,580.6,Single-ply,SBD,M
Boys,100,6,Cole Doerr,Marion,94.12,219.99,133.81,219.99,573.79,Single-ply,SBD,M
Boys,100,7,Seth Almendarez,San Antonio Holy Cross,99.65,233.6,124.74,199.58,557.92,Single-ply,SBD,M
Boys,100,8,Kenton Spriggs,Marion,92.17,204.12,136.08,215.46,555.65,Single-ply,SBD,M
Boys,100,9,Manuel Valverde,San Antonio Memorial,98.57,201.85,142.88,190.51,535.24,Single-ply,SBD,M
Boys,100,10,Gino Santos,San Antonio Holy Cross,93.71,210.92,92.99,217.72,521.63,Single-ply,SBD,M
Boys,100,11,Nathan Cavazos,San Antonio Holy Cross,98.88,226.8,102.06,183.7,512.56,Single-ply,SBD,M
Boys,100,12,Ryan Bowman,Karnes City,98.52,183.7,102.06,197.31,483.08,Single-ply,SBD,M
Boys,100,13,Geronimo Flores,Somerset,96.98,183.7,97.52,183.7,464.93,Single-ply,SBD,M
Boys,110,1,Austen Flores,San Antonio Holy Cross,109.77,265.35,156.49,281.23,703.07,Single-ply,SBD,M
Boys,110,2,Eddie Moreno,Somerset,108.77,226.8,181.44,281.23,689.46,Single-ply,SBD,M
Boys,110,3,Anthony Cantu,San Antonio East Central,108.05,281.23,131.54,226.8,639.57,Single-ply,SBD,M
Boys,110,4,Logan Crane,Bandera,109,233.6,147.42,215.46,596.47,Single-ply,SBD,M
Boys,110,5,Adrian Melendez-Leon,San Antonio Southwest,102.42,215.46,136.08,226.8,578.33,Single-ply,SBD,M
Boys,110,6,Jacob Hernandez,Stockdale,106.46,210.92,136.08,210.92,557.92,Single-ply,SBD,M
Boys,110,7,Francisco Duran,Marion,102.87,192.78,129.27,215.46,537.51,Single-ply,SBD,M
Boys,110,8,Samson Montoya,Marion,103.87,183.7,111.13,183.7,478.54,Single-ply,SBD,M
Boys,110,9,Robert Reus,San Antonio East Central,101.79,142.88,95.25,183.7,421.84,Single-ply,SBD,M
Boys,110,10,Daniel Ramos,Somerset,104.24,149.69,97.52,149.69,396.89,Single-ply,SBD,M
Boys,110,DQ,Anthony Alegre,Poteet,105.96,204.12,113.4,,,Single-ply,SBD,M
Boys,125,1,James Woods,Somerset,124.28,328.85,179.17,278.96,786.98,Single-ply,SBD,M
Boys,125,2,Jorge Flores,San Antonio Memorial,120.97,278.96,142.88,244.94,666.78,Single-ply,SBD,M
Boys,125,3,Jalen Cano,Stockdale,113.49,251.74,142.88,235.87,630.49,Single-ply,SBD,M
Boys,125,4,Elijah Amaro,San Antonio Southwest,123.38,249.48,167.83,208.65,625.96,Single-ply,SBD,M
Boys,125,5,Steve Segura,San Antonio Southwest,122.83,249.48,136.08,192.78,578.33,Single-ply,SBD,M
Boys,125,6,Jace Gonzales,Karnes City,113.76,233.6,113.4,197.31,544.31,Single-ply,SBD,M
Boys,125,7,Jonah Barrow,Castroville Medina Valley,119.57,204.12,138.35,183.7,526.17,Single-ply,SBD,M
Boys,125,8,Marcus Luna,San Antonio Southwest,112.85,185.97,145.15,185.97,517.1,Single-ply,SBD,M
Boys,125,9,Anthony Walters,San Antonio Cole,112.45,183.7,124.74,172.37,480.81,Single-ply,SBD,M
Boys,125+,1,Joseph Peña #1,San Antonio Holy Cross,161.93,455.86,215.46,285.76,957.08,Single-ply,SBD,M
Boys,125+,2,Odie De La Rosa,Castroville Medina Valley,150.77,288.03,192.78,244.94,725.75,Single-ply,SBD,M
Boys,125+,3,Wyatt Diaz,Stockdale,134.31,288.03,181.44,251.74,721.21,Single-ply,SBD,M
Boys,125+,4,Joshua Leal,Karnes City,133.36,265.35,183.7,267.62,716.68,Single-ply,SBD,M
Boys,125+,5,Santiago Leija,Natalia,126.01,272.16,158.76,260.82,691.73,Single-ply,SBD,M
Boys,125+,6,Mike Kessler,Castroville Medina Valley,148.91,306.17,161.03,215.46,682.66,Single-ply,SBD,M
Boys,125+,7,Isaiah Reyna,Somerset,137.21,256.28,90.72,219.99,566.99,Single-ply,SBD,M
Boys,125+,8,Luis Cantu,Hondo,125.83,215.46,102.06,183.7,501.22,Single-ply,SBD,M
Boys,125+,9,Robert Gonyer,Marion,125.42,158.76,111.13,172.37,442.25,Single-ply,SBD,M
Boys,125+,DQ,Clifford Jacobs,San Antonio Cole,125.46,204.12,,,,Single-ply,SBD,M
