﻿KATEGORIJSKA EQ DEADLIFT;;;;;;;;;;;;;;;;;;;;;;;;;;;;;;;;;;;;;;;;;;;;;;;;;;;;
75;;MILAN Grozdanović;M;1989;74.20;1.1288;;4/1/2017 8:00 AM;SERBIA;;;;Men -75kg EQUIP;-75.0;Seniors;EQUIP;;;;;270.0;-280.0;-280.0;;270.0;270.0;1;1;304.7760;304.7760;304.7760;304.7760;;;;;;;270.0;270.0;1;1;304.7760;304.7760;304.7760;304.7760;;;;;O;OK
90;;ECK Erno Jr.;M;1994;89.00;0.9760;1.0100;4/1/2017 8:00 AM;HUNGARY;;;;Juniors -90kg EQUIP;-90.0;J;EQUIP;;;;;220.0;-230.0;#;;220.0;220.0;1;1;214.7200;216.8672;214.7200;216.8672;;;;;;;220.0;220.0;1;1;214.7200;216.8672;214.7200;216.8672;;;;;J;OK
100;;ECK Laszlo;M;1978;92.80;0.9496;;4/1/2017 8:00 AM;HUNGARY;;;;Men -100kg EQUIP;-100.0;Seniors;EQUIP;;;;;230.0;232.5;235.0;;235.0;235.0;1;1;223.1560;223.1560;223.1560;223.1560;;;;;;;235.0;235.0;1;1;223.1560;223.1560;223.1560;223.1560;;;;;O;OK
125;;IVICA Aranđelović;M;1966;118.75;0.8660;1.1500;4/1/2017 8:00 AM;SERBIA;PLK KNJAŽEVAC;;PLK KNJAŽEVAC;Men M1 -125kg EQUIP;-125.0;Masters1;EQUIP;;;;;120.0;140.0;150.0;;150.0;150.0;1;1;129.9000;149.3850;129.9000;149.3850;;;;;;;150.0;150.0;1;1;129.9000;149.3850;129.9000;149.3850;;;;;M3;OK
;;;;;;;;;;;;;;;;;;;;;;;;;;;;;;;;;;;;;;;;;;;;;;;;;;;;