Name,Count
A. Li,2
A. Smith,9
Aaron Adams,2
Aaron Allen,2
Aaron Cooper,2
Adam Bell,2
Adam Jackson,3
Adam Miller,8
Alan Hernandez,4
Alasdair MacLeod,2
Aleksandr Koshelev,2
Alex Buck,2
Alex Campbell,3
Alex Davies,2
Alex Howe,2
Alex Morrison,2
Alex Palmer,2
Alex Torres,2
Alexander Hickman,2
Allen Fisher,2
Amanda Thompson,2
Amanda Walker,2
Ana Perez,2
Andrew Adams,2
Andrew Cargill,2
Andrew Kelleher,2
Andrew Murphy,3
Andrew Smith,11
Andy Hernandez,2
Andy Huang,2
Angel Gonzalez,3
Angel Hernandez,2
Anthony Young,3
Artem Safonov,2
Ashley Armstrong,2
Ashley Butler,2
Ashley Schultz,2
Austin Martin,3
B. Easley,2
B. Miller,8
B. Moore,7
B. Oden,2
B. Ray,2
Bailey Jones,2
Barbara Lee,2
Beau Moore,2
Ben Jackson,3
Ben Scott,3
Benjamin Smith,5
Bill Kelly,2
Bob Evans,2
Brad Lewis,2
Bradley Horne,2
Brandon Byrd,3
Brandon Scott,3
Brandon Simpson,4
Brandon Stephens,2
Brandon Turner,5
Brayden Walker,2
Brian Clark,2
Brian Goldstein,2
Brian Sullivan,2
Bryce Johnson,3
Bryden Wilson,2
C. Alitz,2
C. Brown,10
C. Rowe,2
Cameron Collins,3
Cameron Smith,5
Carlos Perez,2
Carlos Reyes,2
Charles Anderson,2
Chen,3
Chris Bartley,2
Chris Blair,2
Chris Butler,3
Chris Gonzales,3
Chris Grant,2
Chris Hughes,3
Chris Jones,12
Chris Kennedy,2
Chris Lane,2
Chris Larson,2
Chris Mason,2
Chris Moody,2
Chris Williams,8
Christian Aquino,2
Christian Navarro,3
Christian Williams,3
Christopher Bell,2
Christopher Young,3
Claire Taylor,2
Clinton Lee,2
Cody Hanson,2
Cody Thornton,2
Cole Barton,3
Colin Wright,2
Collin Grant,2
Connor Lynch,2
Corey Grisham,2
Cortney Young,2
Courtney Smith,2
Cristian Garcia,2
Cristian Gonzalez,2
Curtis Miller,2
D. Raymond,2
Dan Brown,3
Dan Mason,5
Daniel Bell,3
Daniel Brown,4
Daniel Clarke,2
Daniel Cook,2
Daniel Rodriguez,8
Daniel Wade,3
Danny Rodriguez,2
Dave Brown,4
Dave Richardson,4
David Alexander,2
David Anderson,6
David Andrews,3
David Bennett,4
David Decanini,2
David Farkas,2
David Herrera,2
David Hughes,4
David Koch,2
David Martin,5
David Martinez,8
David Osborn,2
David Son,4
David Torres,3
David Watkins,2
David Watson,4
David Williams,6
Dennis Arnold,2
Diego Perez,2
Dillon Peterson,2
Dominique Fisher,2
Donnie Thompson,2
Duy Tran,2
Eduardo Garcia,2
Elias George,2
Emily Hu,2
Emmanuel Hernandez,3
Enrique Rodriguez,2
Eric Banks,2
Eric Gonzales,2
Eric Gray,2
Eric Kratz,2
Eric Pierce,2
Eric Smith,2
Erik Anderson,3
Ethan Fudge,2
Felipe Hernandez,3
Fernando Rivera,2
Frank Luna,2
Frank Sanders,2
G. Alloway,2
Gabor Kiss,2
Garret Jacobsen,2
Gary Miller,5
Greg Simmons,2
Helen Hughes,2
Henry Hernandez,2
Hieu Le,2
Hung,2
Inna Filimonova,2
Isaac Robles,2
J. Donahue,2
J. Miller,2
J. Smith,16
Jack Davis,3
Jack Taylor,4
Jack Young,3
Jacob Hughes,3
Jacob Manley,2
Jacob Noble,2
Jacob Winstead,2
Jacob Stone,2
Jake Williams,2
James Edwards,2
James Ellis,3
James Grant,3
James Henderson,3
James MacDonald,2
Jared Brown,2
Jason Clarke,3
Jason Cook,2
Jason Holmes,2
Jason Weaver,2
Javier Garcia,3
Jean-François Caron,3
Jeff Johnston,3
Jeffrey Allen,2
Jeffrey Johnson,2
Jenna Hoffman,2
Jennifer Hobbs,2
Jeremy Adams,2
Jeremy Hines,2
Jeremy Willis,2
Jessica Brown,5
Jessica Ford,2
Jessica Thompson,2
Joanne Barnes,2
Jodie Smith,2
Joe Francisco,2
Joel Bell,3
Joey Reid,2
Johanna Reichel,2
John Jones,5
John Pollock,2
John Smith,8
John Walker,5
Jon Cole,2
Jonathan Clark,4
Jonathan Davis,3
Jonathan Rodgers,3
Jonathan Stewart,3
Jordan Gregory,2
Jordan Holley,2
Jorge Gonzalez,6
Jose Gonzalez,5
Jose Rivas,2
Joseph Coogan,2
Joseph Peña,3
Josh Banks,2
Josh Cannon,2
Josh Ellis,2
Josh Edwards,3
Josh King,3
Josh Morris,2
Josh Smith,21
Joshua Black,2
Joshua Yu,2
Juan Aguilar,2
Juan Hernandez,7
Julio Sanchez,2
Jussi Mustonen,2
Justin Horn,2
Justin Smith,12
Justin Wilson,5
K. Irvin,2
Kayla Anderson,2
Keith Baker,2
Kelly Brown,3
Kenny Ramirez,2
Kevin Hu,2
Kevin Jager,2
Kevin James,3
Kevin Nguyen,12
Kevin Wu,2
Kim Moser,2
Kim Tran,3
Kimberly Einstein,2
Kyle Alexander,2
Kyle Johnson,7
Kyle Kirby,2
Kyle Miller,5
Kyle Sheridan,2
Larry Williams,4
Laura Williams,3
Leandro Fernandez,2
Lee Moran,2
Lewis Hughes,3
Lisa Tran,2
Luis Munoz,3
Luke Richardson,2
Luke Wilson,3
M. Scott,4
M. Suzuki,2
M. Zarefoss,2
Martin Nguyen,2
Minh Duc Nguyen,2
Mario Rodriguez,3
Mark Plummer,2
Mason Evans,2
Matt Brown,6
Matt Ward,3
Matthew Bauer,2
Matthew Cruz,2
Matthew Jordan,2
Mauricio Rodriguez,4
Micah Moore,2
Michael Dean,3
Michael Morris,3
Michael Samson,2
Mikhail Levchenko,2
Mark Daniels,2
Matthew Smith,10
Melissa Garza,2
Michael Walker,5
Mike Conley,2
Mike Jenkins,3
Mike Jones,2
Mike MacDonald,2
Mike Wolfe,2
Morgan Taylor,2
Morgan Thompson,2
Morgan Turner,3
Nate Henderson,2
Nathan Henderson,2
Nathan Smith,8
Nathaniel Baker,3
Nicholas Johnson,2
Nick Wright,3
Nicole Mason,2
Oscar Sandoval,2
Oscar Vasquez,2
Owen Smith,3
Patrick McCloskey,2
Patrick Morrison,2
Paul Jackson,2
Paulo Santos,2
Peter Nguyen,5
Pieter De Waal,2
R. Gillen,2
R. Simon,2
Rachel Hughes,3
Ramon Figueroa,2
Ray Williams,2
Rebecca Smith,2
Richard,2
Robert Doll,2
Robert Morrison,2
Robert Palmer,2
Ruben Hernandez,2
Russell Taylor,2
Ryan Green,2
Ryan Hughes,4
Ryan King,7
Ryan Miller,5
Ryan Preston,2
Ryan Stephenson,2
Ryan Williams,4
S. Fitzgerald,2
S. Hanley,2
S. Johnson,9
Sam Cox,3
Sam Parker,3
Samuel Smith,3
Sara King,2
Sarah Brenner,2
Sarah Lewis,3
Sarah Skinner,3
Sarah Vance,2
Sean Burke,2
Sean Miller,2
Sergio Rodriguez,4
Seth Johnson,3
Seung Lee,2
Shannon Jacobsen,2
Sharon Holmes,2
Shawn Brooks,2
Stephanie Bennett,2
Steve Johnson,6
Susan Johnson,2
T. An,2
Terry Smith,3
Thanh Tam Nguyen,2
Thomas Adams,3
Thomas Wang,2
Tim Gale,2
Tim Parker,4
Timothy Brown,3
Tom Bishop,2
Tom Gee,2
Tom Martin,2
Tom Miller,2
Tomas Novak,2
Tracy Brown,3
Tracy Jones,3
Travis Webb,2
Trevor Walker,2
Tu Le,2
Tyler Collins,2
Tyler Jackson,2
Tyler Mann,2
V. Harrelson,2
W. Aller,2
William Andrews,3
William Brown,5
William Manning,2
Zoltan Horvath,2
