Place,Sex,Name,Event,Division,WeightClassKg,Equipment,BodyweightKg,Squat1Kg,Squat2Kg,Squat3Kg,Best3SquatKg,Bench1Kg,Bench2Kg,Bench3Kg,Best3BenchKg,Deadlift1Kg,Deadlift2Kg,Deadlift3Kg,Best3DeadliftKg,TotalKg,BirthYear
1,M,Chris Keung,SBD,R-T2,83,Raw,79.9,115,120,130,130,82.5,90,-95,90,-157.5,-157.5,157.5,157.5,377.5,
1,M,Kurtis Yim,SBD,R-T3,59,Raw,57.3,147.5,155,162.5,162.5,72.5,80,85,85,150,-160,165,165,412.5,1997
1,M,Derrick Nguyen,SBD,R-T3,74,Raw,72.7,140,152.5,160,160,95,105,-115,105,180,190,197.5,197.5,462.5,1996
2,M,Oren Torten,SBD,R-T3,74,Raw,73.2,-157.5,157.5,-167.5,157.5,102.5,-107.5,-107.5,102.5,165,175,182.5,182.5,442.5,
1,M,Steven Keung,SBD,R-T3,83,Raw,80.8,-135,135,150,150,90,100,105,105,177.5,190,207.5,207.5,462.5,1996
1,M,Kerwin Cayton,SBD,R-T3,93,Raw,91.7,200,217.5,-230,217.5,-120,130,-140,130,245,-265,,245,592.5,1997
1,M,Jonathan Estaris,SBD,R-JR,66,Raw,65.4,182.5,192.5,200,200,95,102.5,107.5,107.5,192.5,202.5,-215,202.5,510,1994
2,M,Stanley Nhan,SBD,R-JR,66,Raw,65.5,145,150,-157.5,150,112.5,115,130,130,182.5,197.5,207.5,207.5,487.5,1995
3,M,Phong Tran,SBD,R-JR,66,Raw,65.9,135,145,152.5,152.5,90,100,105,105,185,197.5,205,205,462.5,1994
4,M,Owen Baclig,SBD,R-JR,66,Raw,62.6,135,140,145,145,-100,105,110,110,150,160,170,170,425,1995
1,M,Martin Brenner,SBD,R-JR,74,Raw,72.4,182.5,192.5,197.5,197.5,107.5,112.5,117.5,117.5,220,235,-242.5,235,550,1995
1,M,Dominic Rodriguez,SBD,R-JR,83,Raw,76.9,162.5,172.5,-177.5,172.5,105,115,-117.5,115,185,195,205,205,492.5,1994
1,M,Carlos Leon,SBD,R-JR,93,Raw,84.4,130,142.5,150,150,87.5,97.5,100,100,150,162.5,172.5,172.5,422.5,1993
1,M,Ryan Finn,SBD,R-JR,105,Raw,100.6,235,240,250,250,130,140,145,145,230,242.5,252.5,252.5,647.5,1993
2,M,Erik Manukyan,SBD,R-JR,105,Raw,96.2,185,197.5,205,205,120,127.5,135,135,205,215,220,220,560,1994
3,M,Eliott Wu,SBD,R-JR,105,Raw,101.5,175,190,200,200,92.5,107.5,110,110,207.5,220,230,230,540,
1,M,Joseph Armenta,SBD,O,120,Single-ply,116.7,215,220,,220,135,-140,140,140,200,210,222.5,222.5,582.5,1969
1,M,Jon Miramontes,SBD,O,120+,Single-ply,131.2,-192.5,205,210,210,160,-165,-165,160,222.5,230,235,235,605,1982
1,M,David Dinh,SBD,R-O,66,Raw,65.8,147.5,155,162.5,162.5,105,110,115,115,-190,200,212.5,212.5,490,1990
2,M,Timmy Song,SBD,R-O,66,Raw,64.6,145,155,165,165,100,107.5,112.5,112.5,195,210,-220,210,487.5,1990
3,M,Audi Claros,SBD,R-O,66,Raw,65.5,140,145,147.5,147.5,107.5,110,115,115,192.5,197.5,205,205,467.5,1979
4,M,Derek Chen,SBD,R-O,66,Raw,65.5,112.5,122.5,130,130,82.5,90,-92.5,90,160,172.5,180,180,400,1990
5,M,Randy Cancino,SBD,R-O,66,Raw,66,120,130,142.5,142.5,75,80,-95,80,150,165,-170,165,387.5,
1,M,Gary Wang,SBD,R-O,74,Raw,73.7,180,185,190,190,-110,112.5,115,115,215,230,235,235,540,1990
2,M,Bryan Do,SBD,R-O,74,Raw,73.8,140,165,190,190,95,107.5,115,115,180,195,207.5,207.5,512.5,1988
3,M,Olun Riley,SBD,R-O,74,Raw,72.3,115,122.5,-132.5,122.5,92.5,-100,-105,92.5,152.5,162.5,175,175,390,1969
1,M,Joey Occhipinti,SBD,R-O,83,Raw,82.7,187.5,192.5,200,200,125,132.5,-135,132.5,240,260,267.5,267.5,600,1989
2,M,Dominic Rodriguez,SBD,R-O,83,Raw,76.9,162.5,172.5,-177.5,172.5,105,115,-117.5,115,185,195,205,205,492.5,1994
3,M,Brent Appleton,SBD,R-O,83,Raw,81.5,165,-172.5,-175,165,112.5,117.5,-122.5,117.5,182.5,195,200,200,482.5,1973
4,M,Andrew Slade,SBD,R-O,83,Raw,80.8,125,135,142.5,142.5,97.5,105,110,110,155,170,182.5,182.5,435,1980
1,M,Kent Wu,SBD,R-O,93,Raw,92.6,237.5,252.5,-260,252.5,147.5,-157.5,-157.5,147.5,270,282.5,-285,282.5,682.5,1986
2,M,Ian Beebe,SBD,R-O,93,Raw,89.7,177.5,192.5,197.5,197.5,102.5,-110,110,110,227.5,247.5,-252.5,247.5,555,1995
3,M,Alex Vondrak,SBD,R-O,93,Raw,88.4,165,175,-182.5,175,-105,105,-107.5,105,200,215,220,220,500,1989
1,M,Ryan Finn,SBD,R-O,105,Raw,100.6,235,240,250,250,130,140,145,145,230,242.5,252.5,252.5,647.5,1993
2,M,Keith Normandin,SBD,R-O,105,Raw,102.7,185,192.5,210,210,142.5,152.5,167.5,167.5,205,227.5,237.5,237.5,615,1988
3,M,Lance Hild,SBD,R-O,105,Raw,101,185,215,227.5,227.5,125,-147.5,-147.5,125,185,202.5,-262.5,202.5,555,1975
1,M,Kenneth Vergini,SBD,R-O,120,Raw,117.7,160,185,195,195,102.5,110,117.5,117.5,240,262.5,272.5,272.5,585,1995
1,M,Daniel Huskins,SBD,R-O,120+,Raw,141.9,227.5,235,240,240,147.5,152.5,-160,152.5,277.5,292.5,297.5,297.5,690,1972
1,M,Brent Appleton,SBD,R-M1a,83,Raw,81.5,165,-172.5,-175,165,112.5,117.5,-122.5,117.5,182.5,195,200,200,482.5,1973
2,M,Daniel Lee,SBD,R-M1a,83,Raw,81.2,-147.5,157.5,165,165,80,85,90,90,152.5,162.5,172.5,172.5,427.5,1974
1,M,Darren Garceau,SBD,R-M1a,93,Raw,92.9,137.5,145,157.5,157.5,87.5,92.5,97.5,97.5,175,185,195,195,450,1970
1,M,Lance Hild,SBD,R-M1a,105,Raw,101,185,215,227.5,227.5,125,-147.5,-147.5,125,185,202.5,-262.5,202.5,555,1975
1,M,Olun Riley,SBD,R-M1b,74,Raw,72.3,115,122.5,-132.5,122.5,92.5,-100,-105,92.5,152.5,162.5,175,175,390,1969
1,M,Jason Couse,SBD,R-M1b,83,Raw,82.5,157.5,167.5,175,175,130,140,-145,140,170,182.5,187.5,187.5,502.5,1970
1,M,Wolf Mirasol,SBD,R-M2a,93,Raw,86.4,-125,125,145,145,102.5,107.5,-110,107.5,145,155,170,170,422.5,1961
DQ,M,Kevin Jordan,SBD,R-M2b,105,Raw,103.9,165,177.5,-185,177.5,-145,,,,-175,,,,,
1,M,Aaron Allen #1,SBD,R-Y2,59,Raw,54.9,-40,45,-50,45,25,30,32.5,32.5,40,55,-70,55,132.5,2005
1,F,Marissa Parada,SBD,R-T2,84,Raw,78.6,-80,82.5,90,90,30,35,40,40,100,105,115,115,245,1999
2,F,Ellie Deniz,SBD,R-T2,84,Raw,75.4,72.5,77.5,82.5,82.5,40,-45,-45,40,80,85,-92.5,85,207.5,1999
1,F,Allison Kuykendall,SBD,R-T3,72,Raw,71.5,87.5,95,100,100,45,47.5,-52.5,47.5,112.5,120,130,130,277.5,
1,F,Arianna Drew,SBD,R-JR,52,Raw,52,65,70,-75,70,42.5,45,-47.5,45,85,90,95,95,210,1992
1,F,Neha Sodhi,SBD,R-JR,63,Raw,60.6,80,87.5,-92.5,87.5,40,45,-47.5,45,105,112.5,117.5,117.5,250,1995
1,F,Susan Cunningham,SBD,O,84,Single-ply,84,142.5,147.5,155,155,62.5,-65,65,65,155,165,-172.5,165,385,1978
1,F,Arianna Drew,SBD,R-O,52,Raw,52,65,70,-75,70,42.5,45,-47.5,45,85,90,95,95,210,1992
1,F,Hannah Cunningham,SBD,R-O,63,Raw,61.9,112.5,117.5,122.5,122.5,57.5,60,-65,60,137.5,140,142.5,142.5,325,1983
1,F,Sawyer Gordon,SBD,R-O,72,Raw,68.8,85,92.5,100,100,50,55,57.5,57.5,107.5,115,127.5,127.5,285,1989
2,F,Ashley Serra,SBD,R-O,72,Raw,71.1,102.5,107.5,110,110,50,52.5,-55,52.5,112.5,-115,-115,112.5,275,1982
3,F,Sandi Davitian,SBD,R-O,72,Raw,67.5,67.5,72.5,77.5,77.5,35,40,-42.5,40,97.5,107.5,115,115,232.5,
1,F,Nicole Myers,SBD,R-O,84,Raw,81.1,105,-110,115,115,65,70,-72.5,70,137.5,142.5,150,150,335,1979
2,F,Cassi Gill,SBD,R-O,84,Raw,83.7,105,110,112.5,112.5,52.5,55,-60,55,130,135,142.5,142.5,310,1983
3,F,Christen Diaz,SBD,R-O,84,Raw,83.9,102.5,-107.5,107.5,107.5,52.5,55,-60,55,115,122.5,130,130,292.5,1983
4,F,Marissa Parada,SBD,R-O,84,Raw,78.6,-80,82.5,90,90,30,35,40,40,100,105,115,115,245,1999
5,F,Julie Schneider,SBD,R-O,84,Raw,81.4,60,-65,65,65,45,50,52.5,52.5,95,102.5,110,110,227.5,1968
1,F,Elizabeth Evangelista,SBD,R-O,84+,Raw,95.1,142.5,150,157.5,157.5,67.5,75,-77.5,75,145,157.5,167.5,167.5,400,1989
1,F,Julie Schneider,SBD,R-M1b,84,Raw,81.4,60,-65,65,65,45,50,52.5,52.5,95,102.5,110,110,227.5,1968
1,F,Stephanie Whiting,SBD,M3b,47,Single-ply,43.2,60,65,67.5,67.5,40,42.5,-45,42.5,77.5,82.5,85,85,195,1948
1,F,Linda Hill,SBD,R-M2a,72,Raw,68.2,50,55,-60,55,32.5,35,37.5,37.5,70,75,77.5,77.5,170,1962
1,F,Sue Albert,SBD,R-M3b,84+,Raw,100.2,37.5,42.5,47.5,47.5,35,37.5,40,40,77.5,82.5,92.5,92.5,180,1946
1,M,Will Garcia,B,R-O,59,Raw,58.1,,,,,127.5,132.5,137.5,137.5,,,,,137.5,1990
5,M,Robert Kanamoto,B,R-O,74,Raw,73.8,,,,,-135,142.5,-145,142.5,,,,,142.5,1962
5,M,Sal Ocampo,D,R-O,93,Raw,89.8,,,,,,,,,207.5,220,-227.5,220,220,1982
1,M,Miguel Cerda,D,R-M1b,93,Raw,93,,,,,,,,,205,212.5,220,220,220,1969
2,F,Cathleen Lavelle,D,R-O,63,Raw,60.4,,,,,,,,,120,130,-137.5,130,130,1986
4,M,Mike Conley #1,BD,R-O,74,Raw,72.3,,,,,95,100,105,105,160,172.5,180,180,285,1987
4,M,Jonathan Vasquez,BD,R-O,93,Raw,89.3,,,,,97.5,105,-110,105,185,195,-200,195,300,1993
4,M,Chris Scott,BD,R-O,105,Raw,93.9,,,,,135,142.5,145,145,190,215,-232.5,215,360,1980
4,F,Barbara Garmon,BD,R-O,72,Raw,69.7,,,,,30,35,-37.5,35,57.5,62.5,67.5,67.5,102.5,1942
1,F,Barbara Garmon,BD,R-M4a,72,Raw,69.7,,,,,30,35,-37.5,35,57.5,62.5,67.5,67.5,102.5,1942
