Place,Sex,Name,Event,Division,WeightClassKg,Equipment,BodyweightKg,Best3SquatKg,Best3BenchKg,Best3DeadliftKg,TotalKg,BirthYear
1,M,Gregory Roberge,SD,R-T2,74,Raw,72.2,150,,192.5,342.5,
1,M,Raymond Cheung,SBD,R-T3,66,Raw,60.6,145,92.5,202.5,440,1995
1,M,Peter Eng,SBD,R-T3,74,Raw,70.4,172.5,110,232.5,515,1995
2,M,David Schumacher,SBD,R-T3,74,Raw,73.8,157.5,92.5,197.5,447.5,1996
3,M,Richard Lisi,SBD,R-T3,74,Raw,67.6,125,110,165,400,1996
1,M,Joseph Babcock,SBD,R-T3,83,Raw,80.4,170,105,215,490,1995
2,M,Colby Sousa,SBD,R-T3,83,Raw,79.2,175,115,182.5,472.5,
3,M,Jarrod Lewis,SB,R-T3,83,Raw,81.2,170,92.5,,262.5,1995
1,M,Darryl Brooks,SBD,R-T3,120+,Raw,135.6,187.5,137.5,215,540,1995
1,M,John Goodyear,SBD,T3,83,Single-ply,80.8,200,157.5,212.5,570,1995
2,M,Connor Pelkey,SBD,T3,83,Single-ply,77.4,215,117.5,217.5,550,1996
1,M,Anthony Ramadei,SBD,T3,105,Single-ply,101.2,200,137.5,200,537.5,1996
1,M,Sven Winberg,SBD,JR,59,Single-ply,53.6,142.5,67.5,107.5,317.5,1992
1,M,Michael Cheung,SBD,JR,66,Single-ply,63.8,182.5,110,165,457.5,1994
1,M,James Faso,SBD,JR,83,Single-ply,81,227.5,140,245,612.5,1992
2,M,Yuuki Sato,SBD,JR,83,Single-ply,77.6,232.5,142.5,222.5,597.5,1994
3,M,Ian Doxsee,SBD,JR,83,Single-ply,80.2,215,140,215,570,1992
4,M,Wilson Mefford,SBD,JR,83,Single-ply,81.2,205,150,215,570,1992
5,M,Jake Ascher,SBD,JR,83,Single-ply,81.8,200,137.5,215,552.5,
6,M,Jordan Laraon,SBD,JR,83,Single-ply,81.8,212.5,105,205,522.5,
1,M,Matt Hughes,SBD,JR,105,Single-ply,102.8,227.5,182.5,260,670,1993
2,M,Sam Choi,SBD,JR,105,Single-ply,94.2,245,165,225,635,1991
3,M,Korn Barsauskas,SBD,JR,105,Single-ply,95.2,250,25,230,505,
4,M,James Sykes,SBD,JR,105,Single-ply,100.8,190,85,210,485,1992
1,M,Cody Giampa,SBD,JR,120,Single-ply,115.8,340,250,320,910,1991
1,M,Zach Neuschaefer,SD,JR,120+,Single-ply,126.8,250,,217.5,467.5,
1,M,Jared Defanti,SBD,R-JR,66,Raw,66,137.5,90,192.5,420,1994
2,M,Neeraj Bosu,SBD,R-JR,66,Raw,64.8,97.5,92.5,145,335,
1,M,Thomas Lombardo,SBD,R-JR,74,Raw,74,145,115,177.5,437.5,1993
2,M,Brenno Ribiero,SBD,R-JR,74,Raw,73,157.5,92.5,182.5,432.5,
1,M,Thomas Gottschalk,SBD,R-JR,83,Raw,81,200,137.5,232.5,570,1994
2,M,David Apotheker,SBD,R-JR,83,Raw,80.8,190,125,235,550,1993
3,M,Kyle Thebado,SBD,R-JR,83,Raw,81,182.5,130,227.5,540,1993
4,M,Robert Brahman,SBD,R-JR,83,Raw,79.8,170,87.5,185,442.5,
5,M,Neil Gentile,SBD,R-JR,83,Raw,82.2,150,95,190,435,1993
6,M,Jackson Gallant,SBD,R-JR,83,Raw,77.2,102.5,70,150,322.5,1994
1,M,Derrick Russo,SBD,R-JR,93,Raw,88.4,172.5,137.5,227.5,537.5,1994
2,M,Joshua Wakefield,SBD,R-JR,93,Raw,90.6,182.5,122.5,227.5,532.5,1991
3,M,John Ferrentino,SBD,R-JR,93,Raw,93,182.5,127.5,207.5,517.5,1994
4,M,Connor Cronan,SBD,R-JR,93,Raw,89,165,127.5,187.5,480,1993
1,M,Clarence Foreman,SBD,R-JR,105,Raw,98.8,167.5,117.5,217.5,502.5,
2,M,Tyler McGathy,SBD,R-JR,105,Raw,99.2,165,125,205,495,
1,M,Aaron Lamb,SBD,O,74,Single-ply,74,190,140,215,545,1988
1,M,Sean Peterson,SBD,R-O,66,Raw,64,130,102.5,197.5,430,1985
2,M,Dan Huynh,SBD,R-O,66,Raw,65.2,115,100,147.5,362.5,1986
1,M,Anthony Tran,SBD,R-O,74,Raw,72.6,187.5,130,200,517.5,1987
1,M,Frank Zong,SBD,R-O,83,Raw,81.6,192.5,130,215,537.5,1990
1,M,Dan Haskin,SBD,R-O,93,Raw,84.2,245,145,277.5,667.5,
2,M,Nicalos Westgate,SBD,R-O,93,Raw,87.8,175,157.5,205,537.5,1988
3,M,Joseph Marcotte,SBD,R-O,93,Raw,83.8,172.5,137.5,205,515,1977
4,M,Ryan Mayo,SBD,R-O,93,Raw,91.8,192.5,137.5,182.5,512.5,1983
1,M,Jason Baird,SBD,R-O,105,Raw,98.4,227.5,140,272.5,640,1987
2,M,Jon Arnold,SBD,R-O,105,Raw,102.4,192.5,130,240,562.5,
3,M,Chris Boucher,SBD,R-O,105,Raw,102.6,170,107.5,175,452.5,1987
1,M,Adam Lebel,SBD,R-O,120,Raw,119,230,205,267.5,702.5,1981
2,M,Fred Zeiba,SBD,R-O,120,Raw,118.2,220,122.5,222.5,565,1988
1,M,Rob Meulenberg,SBD,R-O,120+,Raw,133.2,300,192.5,285,777.5,1976
2,M,Jamin Grantham,SBD,R-O,120+,Raw,175.2,175,165,260,600,1983
1,M,Frank Juszynski,SBD,M1b,105,Single-ply,95.2,195,130,235,560,1970
1,M,Glen Nugent,B,R-M1b,120,Raw,115.4,,167.5,,167.5,1969
1,M,David Mansfield,SBD,M3b,93,Single-ply,89.5,210,90,225,525,
1,M,Gene Whiting,SBD,R-M2a,93,Raw,86.6,130,95,182.5,407.5,1961
1,F,Meg Reilly,SBD,T3,63,Single-ply,62.4,110,55,105,270,
2,F,Katelin Murdock,SBD,T3,63,Single-ply,62.4,105,55,110,270,1995
1,F,Shannon Croatto,SBD,T3,72,Single-ply,71.8,135,57.5,135,327.5,1995
1,F,Corinne Bowers,SBD,T3,84,Single-ply,81.4,122.5,70,120,312.5,1995
2,F,Maeve Bell,SBD,T3,84,Single-ply,77.6,102.5,70,117.5,290,1995
1,F,Nicole Maalouf,SBD,JR,72,Single-ply,70.6,127.5,92.5,147.5,367.5,1994
2,F,Kelsey McCarthy,SBD,JR,72,Single-ply,68.8,140,62.5,157.5,360,1992
3,F,Helen Ramsay,SBD,JR,72,Single-ply,69.4,132.5,80,147.5,360,1993
4,F,Tessa Peixoto,SBD,JR,72,Single-ply,70,122.5,67.5,120,310,1994
1,F,Caitlyn Hester,SBD,JR,84,Single-ply,80.8,140,87.5,150,377.5,1992
1,F,Moriah Buckwalter,SBD,JR,84+,Single-ply,92.8,140,55,137.5,332.5,1995
1,F,Molly Kelly,SBD,R-JR,63,Raw,62.2,132.5,52.5,130,315,1993
1,F,Jannifer Ho,SBD,R-JR,72,Raw,69.4,92.5,57.5,112.5,262.5,1994
1,F,Casey Landdry,SBD,O,57,Single-ply,55,102.5,50,110,262.5,
1,F,Lauren Arnold,SBD,R-O,72,Raw,65.4,72.5,45,102.5,220,1977
1,F,Jennifer Rodrigues,SBD,R-O,84,Raw,79.2,127.5,70,165,362.5,1982
2,F,Sheryl Miller,SBD,R-O,84,Raw,76.8,87.5,50,115,252.5,1975
3,F,Caroline Mallary,SBD,R-O,84,Raw,79.8,20,62.5,40,122.5,1981
1,F,Kristin Bolton,SBD,R-O,84+,Raw,97.6,115,62.5,147.5,325,1975
1,F,Denise Montini,SBD,R-M1a,72,Raw,69.8,60,37.5,85,182.5,1973
1,F,Lynn Sweet,SBD,R-M1b,72,Raw,63.4,75,45,117.5,237.5,1969
1,F,Kathy Goss,SBD,R-M2a,72,Raw,68,102.5,47.5,125,275,1964
1,F,Denise Thomas,SBD,R-M3a,63,Raw,61.4,65,37.5,92.5,195,1950
1,F,Carole Krassner,SBD,R-M4a,63,Raw,61.2,30,27.5,72.5,130,1940
